<?xml version="1.0" encoding="utf-8"?>
<!-- Generator: Adobe Illustrator 22.1.0, SVG Export Plug-In . SVG Version: 6.00 Build 0)  -->
<svg version="1.1" id="Layer_1" xmlns="http://www.w3.org/2000/svg" xmlns:xlink="http://www.w3.org/1999/xlink" x="0px" y="0px"
	 viewBox="0 0 512 512" style="enable-background:new 0 0 512 512;" xml:space="preserve">
<style type="text/css">
	.st0{fill:none;stroke:#000001;stroke-width:20;stroke-linecap:round;stroke-linejoin:round;stroke-miterlimit:2.6131;}
	.st1{fill:none;stroke:#000001;stroke-width:10;stroke-miterlimit:2.6131;}
	.st2{fill-rule:evenodd;clip-rule:evenodd;}
	.st3{fill:none;}
	.st4{fill:none;stroke:#000001;stroke-width:0.25;stroke-miterlimit:2.6131;}
	.st5{fill:none;stroke:#000001;stroke-width:2.9999;stroke-miterlimit:2.6131;}
	.st6{fill:#000001;}
	.st7{fill:none;stroke:#000001;stroke-width:0.216;stroke-miterlimit:2.6131;}
	.st8{fill-rule:evenodd;clip-rule:evenodd;fill:#000001;}
	.st9{fill:none;stroke:#000001;stroke-width:3;stroke-linecap:round;stroke-linejoin:round;stroke-miterlimit:2.6131;}
	.st10{fill:none;stroke:#000001;stroke-width:9;stroke-linecap:round;stroke-linejoin:round;stroke-miterlimit:2.6131;}
</style>
<path class="st0" d="M342.1,151.4C355.2,30.5,200.9-24,103.3,31.1C62.1,54.3,16.1,99.6,9.8,186.8c-11.7,162,100.5,267.5,185.7,299.9
	c72.1,27.4,115.6,19.3,179.6-8.2c152.9-65.9,173.6-240.3,47.4-246.7"/>
<path class="st0" d="M321.4,126.2c0,0,15.2,43.2-11.7,84.6c0,0-11.1,15-2.3,40.8c0,0,2.9,5.4-9.3,10.8c-12.3,5.4-14.6,4.8-13.4,12
	c1.2,7.2,1.5,8.4-7.9,11.4c-9.3,3-3.8,12.3-3.8,12.3s1.2,2.2-5.4,4.2c-6.6,1.9-9.3,7.9-9.9,14.5c-0.6,6.6-9.1,26.4-30.1,14.7
	c-21-11.7-40.3-26.1-67.8-19.5c0,0-12.9,3-8.2,34.8"/>
<path class="st0" d="M301.7,123c0,0,10.5,48-114.5,96c-125,48-42.1,182.4,29.2,249.5"/>
<path class="st0" d="M309.6,211.4c1.2,3.8,4.4,8.6,12.6,12.4"/>
<path class="st0" d="M267.1,496.9c19.9-60,20.9-93.8,104.6-121.8c53.9-18,129.3-88.4,59.4-126.4c-15.7-8.6-41.6-9.7-55.9,4.1
	c0,0-18.1,19.8-19.6,31.8c0,0-14.9,3-20.2,0.6v15c0,0-28,43.2,19.3,67.2 M350.4,269.7c0,0-2.5,10.3,5.1,14.8"/>
</svg>
