<?xml version="1.0" encoding="utf-8"?>
<!-- Generator: Adobe Illustrator 22.1.0, SVG Export Plug-In . SVG Version: 6.00 Build 0)  -->
<svg version="1.1" id="Layer_1" xmlns="http://www.w3.org/2000/svg" xmlns:xlink="http://www.w3.org/1999/xlink" x="0px" y="0px"
	 viewBox="0 0 512 512" style="enable-background:new 0 0 512 512;" xml:space="preserve">
<style type="text/css">
	.st0{fill:none;stroke:#000001;stroke-width:20;stroke-linecap:round;stroke-linejoin:round;stroke-miterlimit:2.6131;}
	.st1{fill:none;stroke:#000001;stroke-width:20;stroke-miterlimit:2.6131;}
	.st2{fill-rule:evenodd;clip-rule:evenodd;}
	.st3{fill:none;}
	.st4{fill:none;stroke:#000001;stroke-width:0.25;stroke-miterlimit:2.6131;}
	.st5{fill:none;stroke:#000001;stroke-width:2.9999;stroke-miterlimit:2.6131;}
	.st6{fill:#000001;}
	.st7{fill:none;stroke:#000001;stroke-width:0.216;stroke-miterlimit:2.6131;}
	.st8{fill-rule:evenodd;clip-rule:evenodd;fill:#000001;}
	.st9{fill:none;stroke:#000001;stroke-width:3;stroke-linecap:round;stroke-linejoin:round;stroke-miterlimit:2.6131;}
	.st10{fill:none;stroke:#000001;stroke-width:9;stroke-linecap:round;stroke-linejoin:round;stroke-miterlimit:2.6131;}
</style>
<polygon class="st0" points="53.6,10.4 284,10.4 356.3,78.2 356.3,414.8 53.6,414.8 "/>
<polygon class="st0" points="285.1,19.5 356.3,86.2 356.3,93 285.1,93 "/>
<polygon class="st0" points="11.8,63.6 53.6,63.6 53.6,422.8 314.5,422.8 314.5,468 11.8,468 "/>
<g>
	<line class="st0" x1="103" y1="95.6" x2="234.6" y2="95.6"/>
	<line class="st0" x1="103" y1="329.6" x2="234.6" y2="329.6"/>
	<line class="st0" x1="103" y1="153.8" x2="306.9" y2="153.8"/>
	<line class="st0" x1="103" y1="207.7" x2="306.9" y2="207.7"/>
	<line class="st0" x1="103" y1="266.2" x2="306.9" y2="266.2"/>
</g>
<path class="st6" d="M436.6,440.8L411,500c-0.8,2.3-2.3,4.5-4.4,6.1c-10.5,8.3-17.9,2.8-21.5-1.4c-2-2-3.4-4.7-3.8-7.7l-7.8-63.3
	l0,0c-0.1-0.9-0.1-1.8,0-2.8l0.1-0.6l-0.4-14.9c0-0.6,0-1.3,0-1.9l15.2-158.2l22.9-216.1l0,0l0-0.3c1.4-11,10.5-15.2,14.9-16.7
	c1.8-0.7,3.8-1,5.8-0.8l30.8,2.5c14.6,1.2,17.6,13.9,17.9,15.3c0.2,1,0.3,2,0.3,3.1l-0.1,13.2c4,3,9.3,6.7,11.9,8.3l0.5,0.3
	c10.5,5.5,14.5,17.7,14.5,17.7l0,0c0.6,1.8,0.9,3.8,0.7,5.8l-9.2,87.1c1.2,4.8,0.8,9.7-0.8,14.2c-1.8,5.1-5.4,9.7-10.3,12.7
	c-1,0.7-2,1.3-3.2,1.7c-5.7,2.5-11.8,2.7-17.3,0.9c-1.6-0.5-3.1-1.1-4.5-1.9c-7.4,63.1-14.1,124.9-20.7,186.7l-5.2,48l0,0
	C437.5,438.2,437.2,439.5,436.6,440.8 M398.4,495.7l26-60.2c1.2-11.3,2.4-22.6,3.7-34l0.2-2.1c8.1-75.2,16.1-150.2,25.2-225.3h0
	l12.6-96.9l15.6,8.8l-8.6,81.3l0.3,1.7c-1.2,0.2-2.3,0.6-3.4,1.2c-5.7,3-7.9,10-4.9,15.7c3,5.7,10,7.9,15.7,4.9
	c5.4-2.8,7.7-9.3,5.3-14.8l9.5-89.8c0,0-2.5-7.4-8.2-10.4c-5.7-3-19.6-13.7-19.6-13.7l0.2-19.9c0,0-0.8-4.6-6.1-5.1
	c-5.3-0.5-30.8-2.5-30.8-2.5s-5.9,1-6.5,5.9c-6.8,63.7-13.5,127.4-20.2,191c-0.9,8.4-1.8,16.7-2.7,25.1l-15.2,158.1l0.4,17.4
	l37.5,3.4l-37.6-3.4l7.8,63.3C394.6,495.4,395.8,497.8,398.4,495.7z"/>
<polygon class="st6" points="445,247.8 403.2,243.4 405,225.5 446.9,229.9 "/>
<polygon class="st7" points="445,247.8 403.2,243.4 405,225.5 446.9,229.9 "/>
</svg>
