<?xml version="1.0" encoding="utf-8"?>
<!-- Generator: Adobe Illustrator 22.1.0, SVG Export Plug-In . SVG Version: 6.00 Build 0)  -->
<svg version="1.1" id="Layer_1" xmlns="http://www.w3.org/2000/svg" xmlns:xlink="http://www.w3.org/1999/xlink" x="0px" y="0px"
	 viewBox="0 0 512 512" style="enable-background:new 0 0 512 512;" xml:space="preserve">
<style type="text/css">
	.st0{fill:none;stroke:#000001;stroke-width:20;stroke-linecap:round;stroke-linejoin:round;stroke-miterlimit:2.6131;}
	.st1{fill:none;stroke:#000001;stroke-width:20;stroke-miterlimit:2.6131;}
	.st2{fill-rule:evenodd;clip-rule:evenodd;}
	.st3{fill:none;}
	.st4{fill:none;stroke:#000001;stroke-width:0.25;stroke-miterlimit:2.6131;}
	.st5{fill:none;stroke:#000001;stroke-width:2.9999;stroke-miterlimit:2.6131;}
	.st6{fill:#000001;}
	.st7{fill:none;stroke:#000001;stroke-width:0.216;stroke-miterlimit:2.6131;}
	.st8{fill-rule:evenodd;clip-rule:evenodd;fill:#000001;}
	.st9{fill:none;stroke:#000001;stroke-width:3;stroke-linecap:round;stroke-linejoin:round;stroke-miterlimit:2.6131;}
	.st10{fill:none;stroke:#000001;stroke-width:9;stroke-linecap:round;stroke-linejoin:round;stroke-miterlimit:2.6131;}
</style>
<path class="st1" d="M123.5,441.7c34.5,24,82.5,49.7,131.7,60.5c36.3,8,46.5,4.3,72.6-13.1c13.7-9.1,40.9-29.8,52.7-42.8
	c18.3-20.1,26.3-24.8,44.7-50.8c41.1-58.3,72.3-150.1,9.4-207.7c-48.8-44.6-126.4-11.3-173.3,23.3c-4.3,3.2-8.5,6.5-13.3,9.9
	c-6.5,4.6-10.2,1-18.4-1.6c-57.5-18.2-139.7-26.5-174.3,21.2C4.8,310.3,63.7,400.2,123.5,441.7z M355,223.3
	c33.1,0,59.8,26.8,59.8,59.8c0,33.1-26.8,59.8-59.8,59.8c-33.1,0-59.8-26.8-59.8-59.8C295.1,250.1,321.9,223.3,355,223.3z
	 M241,284.2c3.9,8.6,12.6,21.4,18.1,29c11.5,17.6,16.2,25.6,40,39c8,4.5,19.1,8.5,29,10.5c13.3,2.7,25,1.4,37.6,3.3
	c-6.9,5-14,15.8-38.1,31.5c-32.1,20.8-71.2,33.9-110.7,24.7c-15.5-3.6-40.4-15.1-48.1-24c18.9-1.3,39-2.9,44.9-19.1
	c10.2-28.4-31.3-80.1-12.1-102.1C217.6,258.5,231.6,272,241,284.2z"/>
<path class="st1" d="M207.6,7.1c-47.5,6.1-88.1,49-80.7,103.9c6.4,47.5,48.9,87.4,104,80.5c46.6-5.9,87.8-49.3,80.4-103.9
	C304.8,40.7,262.8-0.1,207.6,7.1z"/>
</svg>
